Testing Scagnostic Rescaling Across Preprocessing Settings – Tina Rashid Jafari
…
      model == "log_quadratic" ~ 
        beta_intercept + beta_logn * logn + beta_logn2 * logn2,
      
      TRUE ~ NA_real_
    ),
    
    rescaled_value = (value - lb) / (1 - lb),
    rescaled_value = pmax(rescaled_value, 0)
  ) |>
  select(simulation:index, lb, rescaled_value)

stringy_500_rescaled

# A tibble: 160,000 × 10
   simulation  seed sigma  hex   out_rm n_final value index    lb rescaled_value
        <dbl> <dbl> <chr>  <chr> <chr>    <dbl> <dbl> <chr> <dbl>          <dbl>
 1          2  1029 noise  no    no         500 0.169 stri… 0.219          0    
 2          2  1029 noise  no    no         500 0.731 stri… 0.756          0    
 3          2  1029 struc… no    no         500 1.000 stri… 0.219          1.000
 4          2  1029 struc… no    no         500 1     stri… 0.756          1    
 5          2  1029 noise  no    yes        486 0.179 stri… 0.222          0    
 6          2  1029 noise  no    yes        486 0.728 stri… 0.757          0    
 7          2  1029 struc… no    yes        499 1.000 stri… 0.220          1.000
 8          2  1029 struc… no    yes        499 1     stri… 0.756          1    
 9          2  1029 noise  yes   no         398 0.197 stri… 0.241          0    
10          2  1029 noise  yes   no         398 0.716 stri… 0.759          0    
# ℹ 159,990 more rows
…
