Exploring Iterative Outlier Removal in cassowaryr – Tina Rashid Jafari
…
removal_summary <- experiment_checked |>
  group_by(sample_id, outlier_level) |>
  summarise(
    total_points = n(),
    removed_total = sum(status == "Removed"),
    removed_gaussian = sum(status == "Removed" & point_type == "gaussian"),
    removed_added_outliers = sum(status == "Removed" & point_type == "added_outlier"),
    removed_percent = 100 * removed_total / total_points,
    .groups = "drop"
  )

removal_summary

# A tibble: 40 × 7
   sample_id outlier_level total_points removed_total removed_gaussian
       <int> <fct>                <int>         <int>            <int>
 1         1 clean                  250             6                6
 2         1 plus_1                 251             7                6
 3         1 plus_3                 253             9                6
 4         1 plus_5                 255            11                6
 5         2 clean                  250            10               10
 6         2 plus_1                 251            11               10
 7         2 plus_3                 253            13               10
 8         2 plus_5                 255            15               10
 9         3 clean                  250            14               14
10         3 plus_1                 251            15               14
# ℹ 30 more rows
# ℹ 2 more variables: removed_added_outliers <int>, removed_percent <dbl>
…
